A Austin
B [dead]
C Atlanta
D [dead]
E [dead]
F [dead]
G NewYork
H Chicago
I Denver
J Boston
K [dead]
L Philadelpia
M SaltLakeCity
N [dead]
O Phoenix
P Memphis
Q LasVegas
R Baltimore
S NewOrleans
T Honolulu
